Ketupat Ayam Geprek : 10000
Nasi Bakar Ayam Bakar : 15000
Mie Kuah Ayam Geprek : 5000
Nasi Bakar Ayam Goreng : 25000
Nasi Ayam Geprek : 20000
Nasi Ayam Bakar : 25000
Nasi Bakar Ikan Goreng : 10000
Lontong Ayam Bakar : 5000
Ketupat Ayam Penyet : 20000
Nasi Goreng Ayam Geprek : 5000
Teh Hangat : 15000
Jamu Biasa : 15000
Kopi Es : 5000
Jus Buah Panas : 5000
Susu Hangat : 15000
